<?xml version="1.0" encoding="utf-8"?>
<!-- Generator: Adobe Illustrator 16.0.0, SVG Export Plug-In . SVG Version: 6.00 Build 0)  -->
<!DOCTYPE svg PUBLIC "-//W3C//DTD SVG 1.1//EN" "http://www.w3.org/Graphics/SVG/1.1/DTD/svg11.dtd">
<svg version="1.1" id="Layer_1" xmlns="http://www.w3.org/2000/svg" xmlns:xlink="http://www.w3.org/1999/xlink" x="0px" y="0px"
	 width="228px" height="78px" viewBox="0 0 228 78" enable-background="new 0 0 228 78" xml:space="preserve">
<g>
	<polygon fill="#FF8300" points="32.938,76.02 22.409,49.972 27.753,49.972 35.871,71.021 43.988,49.972 49.331,49.972 
		38.803,76.02 	"/>
	<polygon fill="#FF8300" points="52.223,76.02 52.223,49.972 70.585,49.972 70.585,53.994 56.925,53.994 56.925,60.709 
		70.304,60.709 70.304,64.732 56.925,64.732 56.925,71.996 70.585,71.996 70.585,76.02 	"/>
	<polygon fill="#FF8300" points="94.089,76.02 80.106,57.393 80.106,76.02 75.405,76.02 75.405,49.972 80.226,49.972 93.929,68.012 
		93.929,49.972 98.63,49.972 98.63,76.02 	"/>
	<polygon fill="#FF8300" points="110.721,76.02 110.721,53.994 102.604,53.994 102.604,49.972 123.537,49.972 123.537,53.994 
		115.422,53.994 115.422,76.02 	"/>
	<g>
		<defs>
			<rect id="SVGID_1_" x="2" y="1.508" width="223.475" height="75.992"/>
		</defs>
		<clipPath id="SVGID_2_">
			<use xlink:href="#SVGID_1_"  overflow="visible"/>
		</clipPath>
		<path clip-path="url(#SVGID_2_)" fill="#FF8300" d="M125.785,72.35l2.652-3.556c1.809,1.912,4.742,3.632,8.479,3.632
			c3.857,0,5.344-1.834,5.344-3.59c0-5.47-15.59-2.073-15.59-11.641c0-4.336,3.857-7.653,9.764-7.653
			c4.141,0,7.555,1.329,10.006,3.671l-2.652,3.396c-2.129-2.068-4.982-3.006-7.795-3.006c-2.732,0-4.502,1.329-4.502,3.241
			c0,4.882,15.592,1.876,15.592,11.558c0,4.335-3.174,8.085-10.367,8.085C131.773,76.487,128.197,74.768,125.785,72.35"/>
		<path clip-path="url(#SVGID_2_)" fill="#FF8300" d="M25.298,3.228c2.06,1.147,3.613,2.472,4.666,3.981
			c1.354,1.618,2.256,3.388,2.71,5.313c0.5,1.77,0.752,3.515,0.752,5.23v11.482c0,1.353-0.478,2.498-1.429,3.435
			c-0.956,0.938-2.008,1.408-3.163,1.408c-1.305,0-2.406-0.47-3.308-1.408c-0.906-1.093-1.357-2.237-1.357-3.435V17.753
			l-0.229-1.875c-0.098-0.779-0.366-1.522-0.798-2.225c-0.431-0.702-1.092-1.299-1.981-1.795c-0.886-0.496-2.04-0.743-3.462-0.743
			c-1.472,0-2.665,0.26-3.58,0.782c-0.506,0.26-0.874,0.508-1.102,0.743c-0.229,0.231-0.494,0.56-0.801,0.976
			c-0.304,0.416-0.517,0.794-0.647,1.131c-0.125,0.34-0.216,0.715-0.265,1.131v1.875v11.482c0,1.353-0.478,2.498-1.429,3.435
			c-0.955,0.938-2.008,1.408-3.162,1.408c-1.305,0-2.406-0.47-3.309-1.408c-0.903-1.093-1.357-2.237-1.357-3.435V17.753
			c0.102-1.093,0.216-2.018,0.341-2.771c0.125-0.756,0.288-1.576,0.49-2.459c0.651-1.926,1.553-3.695,2.707-5.313
			c1.357-1.716,3.008-3.095,4.967-4.138c1.955-1.042,4.365-1.563,7.226-1.563C20.734,1.508,23.242,2.083,25.298,3.228"/>
		<path clip-path="url(#SVGID_2_)" fill="#FF8300" d="M66.457,14.474c0.906,0.988,1.356,2.084,1.356,3.279
			c0,1.354-0.477,2.501-1.431,3.438c-0.952,0.934-2.005,1.405-3.159,1.405H52.162c-1.305,0-2.41-0.471-3.312-1.405
			c-0.903-1.093-1.354-2.241-1.354-3.438c0-1.3,0.451-2.421,1.354-3.358c1.052-0.935,2.158-1.405,3.312-1.405h11.061
			C64.476,12.989,65.555,13.486,66.457,14.474 M66.457,2.992c0.906,0.991,1.356,2.084,1.356,3.283c0,1.354-0.477,2.498-1.431,3.435
			c-0.952,0.938-2.005,1.405-3.159,1.405H52.162l-1.805,0.238c-0.805,0.054-1.557,0.317-2.259,0.791
			c-0.704,0.474-1.279,1.186-1.729,2.132c-0.452,0.95-0.677,2.132-0.677,3.556c0,1.579,0.226,2.818,0.677,3.714
			c0.552,0.842,1.154,1.5,1.804,1.974c0.402,0.318,0.778,0.54,1.132,0.673c0.347,0.13,0.699,0.223,1.052,0.277h1.805h11.061
			c1.252,0,2.332,0.496,3.234,1.483c0.906,0.989,1.356,2.082,1.356,3.28c0,1.353-0.477,2.498-1.431,3.435
			c-0.952,0.938-2.005,1.408-3.159,1.408H52.162c-1.004-0.105-1.906-0.222-2.708-0.353c-0.804-0.13-1.609-0.299-2.41-0.508
			c-1.756-0.674-3.436-1.611-5.041-2.81c-0.805-0.677-1.544-1.458-2.221-2.345c-0.677-0.884-1.266-1.771-1.769-2.654
			c-1.054-2.135-1.58-4.687-1.58-7.655c0-1.509,0.138-2.914,0.416-4.217c0.274-1.3,0.663-2.421,1.164-3.358
			c1.105-2.238,2.436-3.928,3.989-5.075c1.605-1.405,3.272-2.355,5.002-2.851c1.733-0.496,3.45-0.744,5.157-0.744h11.061
			C64.476,1.508,65.555,2.003,66.457,2.992"/>
		<path clip-path="url(#SVGID_2_)" fill="#FF8300" d="M96.081,3.084c0.903,0.988,1.356,2.084,1.356,3.279v11.482
			c0,1.353-0.477,2.498-1.429,3.435c-0.955,0.938-2.011,1.408-3.161,1.408c-1.304,0-2.41-0.47-3.313-1.408
			c-0.902-1.093-1.354-2.238-1.354-3.435V6.363c0-1.299,0.451-2.421,1.354-3.358C90.587,2.071,91.693,1.6,92.847,1.6
			C94.099,1.6,95.178,2.096,96.081,3.084"/>
		<path clip-path="url(#SVGID_2_)" fill="#FF8300" d="M182.963,3.228c2.057,1.147,3.609,2.472,4.662,3.981
			c1.357,1.618,2.26,3.388,2.711,5.313c0.5,1.77,0.756,3.515,0.756,5.23v11.482c0,1.353-0.48,2.498-1.432,3.435
			c-0.955,0.938-2.008,1.408-3.162,1.408c-1.305,0-2.406-0.47-3.309-1.408c-0.906-1.093-1.355-2.237-1.355-3.435V17.753
			l-0.229-1.875c-0.098-0.779-0.363-1.522-0.787-2.225c-0.426-0.702-1.08-1.299-1.955-1.795c-0.881-0.496-2.021-0.743-3.424-0.743
			c-1.459,0-2.635,0.26-3.537,0.782c-0.5,0.26-0.867,0.508-1.092,0.743c-0.227,0.231-0.488,0.56-0.789,0.976
			c-0.305,0.416-0.516,0.794-0.641,1.131c-0.125,0.34-0.213,0.715-0.266,1.131v1.875v1.875c0.252,0.989,0.553,1.745,0.906,2.266
			c0.549,0.833,1.229,1.471,2.031,1.913c0.801,0.441,1.928,0.665,3.387,0.665c1.252,0,2.33,0.495,3.232,1.483
			c0.904,0.988,1.355,2.082,1.355,3.28c0,1.353-0.479,2.498-1.43,3.435s-2.008,1.408-3.158,1.408c-1.406,0-2.736-0.159-3.992-0.47
			c-1.25-0.312-2.381-0.702-3.385-1.17c-2.008-1.147-3.623-2.501-4.852-4.061c-1.23-1.563-2.119-3.308-2.672-5.233
			c-0.354-1.093-0.578-1.939-0.676-2.54c-0.102-0.598-0.15-1.548-0.15-2.851c0.098-1.093,0.211-2.018,0.336-2.771
			c0.127-0.756,0.287-1.576,0.49-2.459c0.65-1.926,1.553-3.695,2.707-5.313c1.357-1.716,3.012-3.095,4.967-4.138
			c1.959-1.042,4.365-1.563,7.227-1.563C178.398,1.508,180.906,2.083,182.963,3.228"/>
		<path clip-path="url(#SVGID_2_)" fill="#FF8300" d="M217.35,3.228c2.055,1.147,3.611,2.472,4.662,3.981
			c1.357,1.618,2.262,3.388,2.713,5.313c0.5,1.77,0.752,3.515,0.752,5.23v11.482c0,1.353-0.479,2.498-1.43,3.435
			c-0.955,0.938-2.008,1.408-3.162,1.408c-1.305,0-2.406-0.47-3.313-1.408c-0.902-1.093-1.354-2.237-1.354-3.435V17.753
			l-0.229-1.875c-0.102-0.779-0.365-1.522-0.797-2.225c-0.432-0.702-1.094-1.299-1.982-1.795c-0.891-0.496-2.043-0.743-3.463-0.743
			c-1.471,0-2.664,0.26-3.576,0.782c-0.51,0.26-0.881,0.508-1.105,0.743c-0.229,0.231-0.498,0.56-0.799,0.976
			c-0.307,0.416-0.52,0.794-0.646,1.131c-0.127,0.34-0.217,0.715-0.268,1.131v1.875v11.482c0,1.353-0.479,2.498-1.43,3.435
			c-0.955,0.938-2.008,1.408-3.162,1.408c-1.305,0-2.406-0.47-3.309-1.408c-0.902-1.093-1.354-2.237-1.354-3.435V17.753
			c0.098-1.093,0.213-2.018,0.336-2.771c0.125-0.756,0.289-1.576,0.492-2.459c0.65-1.926,1.553-3.695,2.707-5.313
			c1.354-1.716,3.012-3.095,4.967-4.138c1.955-1.042,4.365-1.563,7.223-1.563C212.783,1.508,215.291,2.083,217.35,3.228"/>
		<path clip-path="url(#SVGID_2_)" fill="#FF8300" d="M97.117,24.471c1.399-0.026,2.531-0.235,3.384-0.703
			c1-0.677,1.717-1.366,2.145-2.072c0.425-0.703,0.887-2.437,0.864-3.943V6.274c0-1.303,0.451-2.421,1.356-3.358
			c1.053-0.938,2.155-1.407,3.309-1.407c1.256,0,2.331,0.495,3.237,1.483c0.902,0.992,1.354,2.084,1.354,3.282v11.479
			c0,0.782-0.075,1.681-0.227,2.694c-0.149,1.018-0.326,1.913-0.525,2.695c-0.602,1.925-1.508,3.683-2.711,5.272
			s-2.795,2.927-4.777,4.023c-1.981,1.093-4.454,1.639-7.409,1.639h-0.131C96.986,34.077,96.875,24.477,97.117,24.471"/>
		<path clip-path="url(#SVGID_2_)" fill="#FF8300" d="M88.066,34.078h-0.124c-2.959,0-5.431-0.546-7.413-1.64
			c-1.982-1.096-3.573-2.434-4.78-4.022c-1.203-1.589-2.106-3.347-2.708-5.273c-0.199-0.781-0.375-1.677-0.526-2.694
			c-0.15-1.014-0.226-1.914-0.226-2.695V6.275c0-1.198,0.451-2.292,1.354-3.283c0.903-0.988,1.981-1.484,3.237-1.484
			c1.154,0,2.256,0.47,3.309,1.407c0.902,0.938,1.357,2.057,1.357,3.359v11.478c0,0.731,0.438,3.242,0.862,3.944
			c0.428,0.705,1.141,1.395,2.145,2.072c0.853,0.467,1.981,0.677,3.388,0.703C88.184,24.478,88.066,34.078,88.066,34.078"/>
	</g>
	<rect x="86.913" y="24.493" fill="#FF8300" width="11.447" height="9.575"/>
	<g>
		<defs>
			<rect id="SVGID_3_" x="2" y="1.508" width="223.475" height="75.992"/>
		</defs>
		<clipPath id="SVGID_4_">
			<use xlink:href="#SVGID_3_"  overflow="visible"/>
		</clipPath>
		<path clip-path="url(#SVGID_4_)" fill="#FF8300" d="M132.475,32.501c-0.902-0.989-1.354-2.084-1.354-3.279V17.74
			c0-1.354,0.479-2.498,1.43-3.435c0.955-0.938,2.008-1.408,3.158-1.408c1.309,0,2.41,0.47,3.313,1.408
			c0.902,1.093,1.354,2.238,1.354,3.435v11.482c0,1.299-0.451,2.421-1.354,3.358c-1.053,0.934-2.154,1.405-3.313,1.405
			C134.457,33.986,133.379,33.49,132.475,32.501"/>
		<path clip-path="url(#SVGID_4_)" fill="#FF8300" d="M131.441,11.115c-1.402,0.025-2.529,0.235-3.383,0.703
			c-1.004,0.677-1.721,1.366-2.148,2.072c-0.426,0.703-0.887,2.437-0.863,3.943v11.479c0,1.303-0.451,2.421-1.357,3.358
			c-1.053,0.938-2.154,1.408-3.309,1.408c-1.252,0-2.332-0.497-3.236-1.484c-0.902-0.992-1.352-2.084-1.352-3.282V17.833
			c0-0.782,0.076-1.681,0.223-2.695c0.154-1.017,0.326-1.913,0.525-2.694c0.604-1.926,1.508-3.683,2.711-5.272
			c1.203-1.589,2.799-2.927,4.777-4.023c1.982-1.094,4.453-1.639,7.412-1.639h0.129C131.57,1.509,131.684,11.109,131.441,11.115"/>
		<path clip-path="url(#SVGID_4_)" fill="#FF8300" d="M140.49,1.508h0.127c2.955,0,5.428,0.546,7.41,1.64
			c1.98,1.096,3.576,2.434,4.779,4.022s2.105,3.347,2.707,5.272c0.199,0.782,0.377,1.678,0.529,2.695
			c0.148,1.014,0.223,1.914,0.223,2.695v11.478c0,1.198-0.451,2.292-1.354,3.283c-0.902,0.989-1.982,1.484-3.236,1.484
			c-1.154,0-2.258-0.47-3.311-1.408c-0.902-0.938-1.354-2.056-1.354-3.359V17.833c0-0.731-0.441-3.242-0.865-3.944
			c-0.428-0.705-1.141-1.395-2.145-2.072c-0.854-0.467-1.982-0.677-3.385-0.703C140.375,11.108,140.49,1.508,140.49,1.508"/>
	</g>
	<rect x="130.197" y="1.517" fill="#FF8300" width="11.447" height="9.575"/>
	<g>
		<defs>
			<rect id="SVGID_5_" x="2" y="1.508" width="223.475" height="75.992"/>
		</defs>
		<clipPath id="SVGID_6_">
			<use xlink:href="#SVGID_5_"  overflow="visible"/>
		</clipPath>
		<path clip-path="url(#SVGID_6_)" fill="#778692" d="M202.16,58.445c0,3.038-1.727,5.491-3.855,5.491
			c-2.127,0-3.846-2.453-3.846-5.491c0-3.028,1.719-5.492,3.846-5.492C200.434,52.953,202.16,55.417,202.16,58.445"/>
		<path clip-path="url(#SVGID_6_)" fill="#778692" d="M214.041,58.445c0,3.038-1.717,5.491-3.846,5.491
			c-2.131,0-3.848-2.453-3.848-5.491c0-3.028,1.717-5.492,3.848-5.492C212.324,52.953,214.041,55.417,214.041,58.445"/>
		<path clip-path="url(#SVGID_6_)" fill="#778692" d="M183.238,52.268c0,0-3.037,8.154,4.125,17.494
			c7.164,9.343,19.043,8.157,23.471,6.87c4.424-1.28,11.496-4.669,12.533-13.462c0.805-6.842-3.77-15.113-13.479-18.138
			c-0.295-0.09-0.307-0.021-0.307-0.021s5.365,2.626,8.178,8.117c2.961,5.809,2.33,13.414-3.605,17.809
			c-11.313,8.377-21.803,0.324-23.645-1.205C186.844,66.686,182.58,60.877,183.238,52.268"/>
		<path clip-path="url(#SVGID_6_)" fill="#778692" d="M224.836,64.988c0,0,3.037-8.154-4.125-17.494
			c-7.164-9.343-19.043-8.157-23.469-6.87c-4.426,1.284-11.496,4.669-12.535,13.462c-0.805,6.842,3.77,15.113,13.48,18.138
			c0.293,0.09,0.307,0.021,0.307,0.021s-5.367-2.626-8.178-8.117c-2.963-5.809-2.332-13.41,3.604-17.805
			c11.313-8.38,21.803-0.328,23.646,1.201C221.23,50.57,225.496,56.379,224.836,64.988"/>
	</g>
	<polygon fill="#FF8300" points="2,49.972 2,76.021 20.362,76.021 20.362,71.997 6.701,71.997 6.701,64.732 20.082,64.732 
		20.082,60.71 6.701,60.71 6.701,53.994 20.362,53.994 20.362,49.972 	"/>
</g>
</svg>
